{
    "id": "1-2",
    "map": "###################\n#ggg#ggggg#ggg#ggg#\n###g#ggggg###g#g#g#\n#ggg#ggggg#ggg#g#g#\n#ggg#ggggg#g#####g#\n#ggggggggggg#####g#\n#ggggggggg#g#####g#\n#ggggggggg#g#####g#\n#ggggggggg#g#####g#\n#ggggggggg#ggggggg#\n###################\n",
    "exits": [
        {
            "pos": [
                1,
                1
            ],
            "color": "green",
            "symbol": "1",
            "locked": false
        },
        {
            "pos": [
                1,
                11
            ],
            "color": "green",
            "symbol": "2",
            "locked": false
        },
        {
            "pos": [
                3,
                15
            ],
            "color": "green",
            "symbol": "3",
            "locked": false
        }
    ],
    "keys": [{"corDoor": "3", "color":"blue", "parts":[{"pos":[3,15], "symbol": "b"}]}],
    "query_points": [4,6,22],
    "vision": "memory",
    "agent": {
        "id": 1,
        "startPos": [
            1,
            5
        ],
        "behavior": {
            "type": "scripted",
            "desire": "3",
            "script": [
                "Down",
                "Down",
                "Down",
                "Down",
                "Left",
                "Left",
                "Up",
                "Up",
                "Up",
                "Up",
                "Down",
                "Down",
                "Down",
                "Down",
                "Right",
                "Right",
                "Right",
                "Right",
                "Right",
                "Right",
                "Right",
                "Right",
                "Up",
                "Up",
                "Right",
                "Right",
                "Up",
                "Up",
                "Down",
                "Down",
                "Left",
                "Left",
                "Down",
                "Down",
                "Down",
                "Down",
                "Down",
                "Down",
                "Right",
                "Right",
                "Right",
                "Right",
                "Right",
                "Right",
                "Up",
                "Up",
                "Up",
                "Up",
                "Up",
                "Up",
                "Up",
                "Up",
                "Left",
                "Left",
                "Down",
                "Down"
            ]
        }
    }
}