{
    "id": "5",
    "map": "#################\n#ggg#ggggg#ggg###\n###g#ggggg###g###\n#ggg#ggggg#ggg###\n#g###ggggg#g#####\n#ggggggggggggggg#\n#ggggggggg#####g#\n#ggggggggg#ggggg#\n#ggggggggg#g#####\n#ggggggggg#ggggg#\n#################\n",
    "exits": [
        {
            "pos": [
                1,
                1
            ],
            "color": "green",
            "symbol": "1",
            "locked": false
        },
        {
            "pos": [
                1,
                11
            ],
            "color": "green",
            "symbol": "3",
            "locked": false
        },
        {
            "pos": [
                9,
                15
            ],
            "color": "green",
            "symbol": "2",
            "locked": false
        }
    ],
    "keys": [{"corDoor": "1", "color":"red", "parts":[{"pos":[1,1], "symbol": "b"}]},
            {"corDoor": "2", "color":"blue", "parts":[{"pos":[9,15], "symbol": "b"}]}],
    "query_points": [4,9,32],
    "vision": "full",
    "agent": {
        "id": 1,
        "startPos": [
            1,
            7
        ],
        "behavior": {
            "type": "scripted",
            "desire": "2",
            "script": [
                "Down",
                "Down",
                "Down",
                "Down",
                "Left",
                "Left",
                "Left",
                "Left",
                "Left",
                "Left",
                "Up",
                "Up",
                "Right",
                "Right",
                "Up",
                "Up",
                "Down",
                "Down",
                "Left",
                "Left",
                "Down",
                "Down",
                "Right",
                "Right",
                "Right",
                "Right",
                "Right",
                "Right",
                "Right",
                "Right",
                "Right",
                "Right",
                "Up",
                "Up",
                "Right",
                "Right",
                "Up",
                "Up",
                "Down",
                "Down",
                "Left",
                "Left",
                "Down",
                "Down",
                "Right",
                "Right",
                "Right",
                "Right",
                "Down",
                "Down",
                "Left",
                "Left",
                "Left",
                "Left",
                "Down",
                "Down",
                "Right",
                "Right",
                "Right",
                "Right"
            ]
        }
    }
}