{
    "id": "8-2",
    "map": "####################\n#ggg#ggggg#gggggggg#\n###g#ggggg#g########\n#ggg#ggggg#gggggggg#\n#g###ggggg########g#\n#gggggggggggggggggg#\n#ggggggggg#g########\n#ggggggggg#ggg######\n#ggggggggg###g######\n#ggggggggg#ggg######\n####################\n",
    "exits": [
        {
            "pos": [
                1,
                1
            ],
            "color": "green",
            "symbol": "1",
            "locked": false
        },
        {
            "pos": [
                1,
                18
            ],
            "color": "green",
            "symbol": "2",
            "locked": false
        },
        {
            "pos": [
                9,
                11
            ],
            "color": "green",
            "symbol": "3",
            "locked": false
        }
    ],
    "keys": [{"corDoor": "1", "color":"red", "parts":[{"pos":[1,1], "symbol": "b"}]},
            {"corDoor": "2", "color":"blue", "parts":[{"pos":[1,18], "symbol": "b"}]}],
    "query_points": [4,9,32],
    "vision": "memory",
    "agent": {
        "id": 1,
        "startPos": [
            1,
            7
        ],
        "behavior": {
            "type": "scripted",
            "desire": "2",
            "script": [
                "Down",
                "Down",
                "Down",
                "Down",
                "Left",
                "Left",
                "Left",
                "Left",
                "Left",
                "Left",
                "Up",
                "Up",
                "Right",
                "Right",
                "Up",
                "Up",
                "Down",
                "Down",
                "Left",
                "Left",
                "Down",
                "Down",
                "Right",
                "Right",
                "Right",
                "Right",
                "Right",
                "Right",
                "Right",
                "Right",
                "Right",
                "Right",
                "Down",
                "Down",
                "Right",
                "Right",
                "Down",
                "Down",
                "Up",
                "Up",
                "Left",
                "Left",
                "Up",
                "Up",
                "Right",
                "Right",
                "Right",
                "Right",
                "Right",
                "Right",
                "Right",
                "Up",
                "Up",
                "Left",
                "Left",
                "Left",
                "Left",
                "Left",
                "Left",
                "Left",
                "Up",
                "Up",
                "Right",
                "Right",
                "Right",
                "Right",
                "Right",
                "Right",
                "Right"
            ]
        }
    }
}