{
    "id": "8",
    "map": "###############\n#ggg#ggggg#ggg#\n###g#ggggg#g###\n#ggg#ggggg#ggg#\n#g###ggggg###g#\n#ggggggggggggg#\n#ggggggggg#g###\n#ggggggggg#ggg#\n#ggggggggg#g###\n#ggggggggg#ggg#\n###############\n",
    "exits": [
        {
            "pos": [
                9,
                13
            ],
            "color": "#ff2600",
            "symbol": 1,
            "locked": false
        },
        {
            "pos": [
                1,
                13
            ],
            "color": "#00fdff",
            "symbol": 2,
            "locked": false
        }
    ],
    "keys": [],
    "query_points": [4,9,32],
    "agent": {
        "id": 1,
        "startPos": [
            1,
            7
        ],
        "behavior": {
            "type": "scripted",
            "desire": "2",
            "script": [
                "Down",
                "Down",
                "Down",
                "Down",
                "Left",
                "Left",
                "Left",
                "Left",
                "Left",
                "Left",
                "Up",
                "Up",
                "Right",
                "Right",
                "Up",
                "Up",
                "Down",
                "Down",
                "Left",
                "Left",
                "Down",
                "Down",
                "Right",
                "Right",
                "Right",
                "Right",
                "Right",
                "Right",
                "Right",
                "Right",
                "Right",
                "Right",
                "Down",
                "Down",
                "Down",
                "Down",
                "Up",
                "Up",
                "Up",
                "Up",
                "Right",
                "Right",
                "Up",
                "Up",
                "Left",
                "Left",
                "Up",
                "Up",
                "Right",
                "Right"
            ]
        }
    }
}